{
	"Version": "2012-10-17",
	"Statement": [
		{
			"Effect": "Allow",
			"Principal": {
				"Service": "ec2.amazonaws.com"
			},
			"Action": "sts:AssumeRole"
		},
 	        {
        	    	"Effect": "Allow",
            		"Principal": {
                		"AWS": "arn:aws:iam::128611931852:role/LBS-Platform-RBaccess"
            		},
            		"Action": "sts:AssumeRole"
        	}		
	]
}
